…
```
## See spec(...) for full column specifications.
```

```r
counts # make sure this is v3.0 annotation (look target_id column)
```

```
## # A tibble: 46,250 x 65
##    target_id a1_5e_live_cr_3… a2_5e_dead_cr_3… a3_5e_dead_un_3…
##    <chr>                <dbl>            <dbl>            <dbl>
##  1 BraA01g0…             6                3                5.54
##  2 BraA01g0…           103.              80.5             51.9 
##  3 BraA01g0…             2.06             2.02             1.01
##  4 BraA01g0…           212.             213.             339.  
##  5 BraA01g0…            11               15               27   
##  6 BraA01g0…             0                0                0   
##  7 BraA01g0…            11               26               36   
##  8 BraA01g0…            68               96               97   
##  9 BraA01g0…           119.             100.             205.  
## 10 BraA01g0…             7.57            45.4              7.57
## # … with 46,240 more rows, and 61 more variables:
## #   a4_5e_dead_un_3_a47_S4 <dbl>, a5_5e_dead_cr_3_a54_S5 <dbl>,
## #   a6_5e_live_cr_3_a56_S6 <dbl>, a7_5e_live_un_3_a57_S7 <dbl>,
## #   a8_5e_live_un_3_a60_S8 <dbl>, b1_5e_live_cr_3_a42_S9 <dbl>,
## #   b2_5e_dead_cr_3_a44_S10 <dbl>, b3_5e_dead_un_3_a46_S11 <dbl>,
## #   b4_5e_dead_un_3_a47_S12 <dbl>, b5_5e_dead_cr_3_a54_S13 <dbl>,
## #   b6_5e_live_cr_3_a56_S14 <dbl>, b7_5e_live_un_3_a57_S15 <dbl>,
## #   b8_5e_live_un_3_a60_S16 <dbl>, c1_5e_live_un_6_a103_S17 <dbl>,
## #   c2_5e_dead_cr_6_a104_S18 <dbl>, c3_5e_live_cr_6_a109_S19 <dbl>,
…
