Br.microbiom.exp1.v3.0.annotationDEG.2018v1
…
## [1] "/Volumes/data_work/Data8/NGS_related/Brassica_microbiome/Brapa_microbes_rebuilt1/v3.0annotation/20170617-samples/scripts"

counts <- readr::read_csv(file.path("..","input","20170617_V3.0_raw_counts.csv.gz"))

## Parsed with column specification:
## cols(
##   .default = col_double(),
##   target_id = col_character()
## )

## See spec(...) for full column specifications.

counts # make sure this is v3.0 annotation (look target_id column)

## # A tibble: 46,250 x 73
##    target_id wyo_leaf_FPsc_0 wyo_leaf_FPsc_0 wyo_leaf_FPsc_0
##    <chr>                <dbl>            <dbl>            <dbl>
##  1 BraA01g0             5                2                  4 
##  2 BraA01g0           101.              78.1              117.
##  3 BraA01g0             5.02             6.06               7 
##  4 BraA01g0           231.             301.               424.
##  5 BraA01g0             8               13                 10 
##  6 BraA01g0             8                0                  9 
##  7 BraA01g0            65               87.5              106 
##  8 BraA01g0           340              320                430 
##  9 BraA01g0           151.              98.4              157.
## 10 BraA01g0           137.              63.3              158.
## #  with 46,240 more rows, and 69 more variables:
## #   wyo_leaf_FPsc_04_141 <dbl>, wyo_leaf_FPsc_04_170 <dbl>,
## #   wyo_leaf_FPsc_04_174 <dbl>, wyo_leaf_FPsc_05_178 <dbl>,
## #   wyo_leaf_FPsc_05_181 <dbl>, wyo_leaf_FPsc_05_218 <dbl>,
## #   wyo_leaf_FPsc_07_272 <dbl>, wyo_leaf_FPsc_07_292 <dbl>,
## #   wyo_leaf_FPsc_07_296 <dbl>, wyo_leaf_FPsc_10_399 <dbl>,
## #   wyo_leaf_FPsc_10_428 <dbl>, wyo_leaf_FPsc_10_435 <dbl>,
## #   wyo_leaf_FPsc_12_508 <dbl>, wyo_leaf_FPsc_12_517 <dbl>,
## #   wyo_leaf_FPsc_12_523 <dbl>, wyo_leaf_R500_02_055 <dbl>,
…
